<?xml version="1.0" encoding="utf-8"?>
<!-- Generator: Adobe Illustrator 22.1.0, SVG Export Plug-In . SVG Version: 6.00 Build 0)  -->
<svg version="1.1" id="Layer_1" xmlns="http://www.w3.org/2000/svg" xmlns:xlink="http://www.w3.org/1999/xlink" x="0px" y="0px"
	 viewBox="0 0 556 568" style="enable-background:new 0 0 556 568;" xml:space="preserve">
<style type="text/css">
	.st0{fill:#305A70;stroke:#305A70;stroke-width:13;stroke-miterlimit:10;}
</style>
<path class="st0" d="M281.2,369.1h-6.3c-4.1,0-7.5,3.4-7.5,7.5s3.4,7.5,7.5,7.5h6.3c4.1,0,7.5-3.4,7.5-7.5
	C288.7,372.4,285.3,369.1,281.2,369.1z"/>
<path class="st0" d="M494.1,150.6h-41.9c-1.2-10.7-10.3-19.1-21.4-19.1h-5.3V93.9c0-31.4-25.5-56.9-56.9-56.9h-73.1
	c-4.1,0-7.5,3.4-7.5,7.5s3.4,7.5,7.5,7.5h73.1c23.1,0,41.9,18.8,41.9,41.9v37.6h-20V93.9c0-12.1-9.8-21.9-21.9-21.9H181.7
	c-12.1,0-21.9,9.8-21.9,21.9v37.6h-20V93.9c0-23.1,18.8-41.9,41.9-41.9h78.8c4.1,0,7.5-3.4,7.5-7.5s-3.4-7.5-7.5-7.5h-78.8
	c-31.4,0-56.9,25.5-56.9,56.9v37.7c-10.9,0.2-19.8,8.5-21,19H61.9c-22,0-39.9,17.9-39.9,39.9v301c0,22,17.9,39.9,39.9,39.9h432.3
	c22,0,39.9-17.9,39.9-39.9V366.7c0-4.1-3.4-7.5-7.5-7.5s-7.5,3.4-7.5,7.5v124.8c0,13.7-11.2,24.9-24.9,24.9H61.9
	c-13.7,0-24.9-11.2-24.9-24.9V272.9c4,4,8.7,7.4,14,9.9l184,88.1c-0.2,1.8-0.4,3.7-0.4,5.6c0,23.9,19.5,43.4,43.4,43.4
	s43.4-19.5,43.4-43.4c0-1.9-0.1-3.8-0.4-5.6l184-88.1c5.3-2.5,10-5.9,14-9.9v58.8c0,4.1,3.4,7.5,7.5,7.5s7.5-3.4,7.5-7.5V190.5
	C534,168.5,516.1,150.6,494.1,150.6z M430.8,146.5c3.6,0,6.5,2.9,6.5,6.5v10.1c0,3.6-2.9,6.5-6.5,6.5h-60.7c-3.6,0-6.5-2.9-6.5-6.5
	V158l0,0v-5c0-3.6,2.9-6.5,6.5-6.5H430.8z M174.8,93.9c0-3.8,3.1-6.9,6.9-6.9h186.9c3.8,0,6.9,3.1,6.9,6.9v37.6h-5.3
	c-11,0-20.1,8.3-21.4,19.1H207.2c-1.2-10.7-10.3-19.1-21.4-19.1h-11.1V93.9H174.8z M118.7,153c0-3.6,2.9-6.5,6.5-6.5h60.7
	c3.6,0,6.5,2.9,6.5,6.5v10.1c0,3.6-2.9,6.5-6.5,6.5h-60.7c-3.6,0-6.5-2.9-6.5-6.5S118.7,156.7,118.7,153z M278,405
	c-15.6,0-28.4-12.7-28.4-28.4c0-14.1,10.3-25.7,23.7-28c0-0.2,4.4-0.4,4.6-0.4c15.5,0,28.4,12.6,28.4,28.4
	C306.4,392.2,293.6,405,278,405z"/>
</svg>
